<?xml version="1.0" encoding="UTF-8" standalone="no"?>
<!-- Created with Inkscape (http://www.inkscape.org/) -->

<svg
   width="11in"
   height="8.5in"
   viewBox="0 0 279.4 215.9"
   version="1.1"
   id="svg5"
   inkscape:version="1.1.1 (3bf5ae0, 2021-09-20)"
   sodipodi:docname="class-diagram.svg"
   inkscape:export-filename="/home/dto/mosaic/class-diagram.png"
   inkscape:export-xdpi="145.131"
   inkscape:export-ydpi="145.131"
   xmlns:inkscape="http://www.inkscape.org/namespaces/inkscape"
   xmlns:sodipodi="http://sodipodi.sourceforge.net/DTD/sodipodi-0.dtd"
   xmlns="http://www.w3.org/2000/svg"
   xmlns:svg="http://www.w3.org/2000/svg">
  <sodipodi:namedview
     id="namedview7"
     pagecolor="#ffffff"
     bordercolor="#666666"
     borderopacity="1.0"
     inkscape:pageshadow="2"
     inkscape:pageopacity="0.0"
     inkscape:pagecheckerboard="0"
     inkscape:document-units="mm"
     showgrid="false"
     units="in"
     inkscape:zoom="1.1338713"
     inkscape:cx="481.97711"
     inkscape:cy="567.08378"
     inkscape:window-width="1920"
     inkscape:window-height="1050"
     inkscape:window-x="0"
     inkscape:window-y="0"
     inkscape:window-maximized="1"
     inkscape:current-layer="layer1" />
  <defs
     id="defs2">
    <marker
       style="overflow:visible"
       id="marker10883"
       refX="0.0"
       refY="0.0"
       orient="auto"
       inkscape:stockid="Tail"
       inkscape:isstock="true">
      <g
         transform="scale(-1.2)"
         id="g10881">
        <path
           style="fill:none;fill-rule:evenodd;stroke:context-stroke;stroke-width:0.8;stroke-linecap:round"
           d="M -3.8048674,-3.9585227 L 0.54352094,0"
           id="path10869" />
        <path
           style="fill:none;fill-rule:evenodd;stroke:context-stroke;stroke-width:0.8;stroke-linecap:round"
           d="M -1.2866832,-3.9585227 L 3.0617053,0"
           id="path10871" />
        <path
           style="fill:none;fill-rule:evenodd;stroke:context-stroke;stroke-width:0.8;stroke-linecap:round"
           d="M 1.3053582,-3.9585227 L 5.6537466,0"
           id="path10873" />
        <path
           style="fill:none;fill-rule:evenodd;stroke:context-stroke;stroke-width:0.8;stroke-linecap:round"
           d="M -3.8048674,4.1775838 L 0.54352094,0.21974226"
           id="path10875" />
        <path
           style="fill:none;fill-rule:evenodd;stroke:context-stroke;stroke-width:0.8;stroke-linecap:round"
           d="M -1.2866832,4.1775838 L 3.0617053,0.21974226"
           id="path10877" />
        <path
           style="fill:none;fill-rule:evenodd;stroke:context-stroke;stroke-width:0.8;stroke-linecap:round"
           d="M 1.3053582,4.1775838 L 5.6537466,0.21974226"
           id="path10879" />
      </g>
    </marker>
    <marker
       style="overflow:visible"
       id="marker10747"
       refX="0.0"
       refY="0.0"
       orient="auto"
       inkscape:stockid="Tail"
       inkscape:isstock="true">
      <g
         transform="scale(-1.2)"
         id="g10528">
        <path
           style="fill:none;fill-rule:evenodd;stroke:context-stroke;stroke-width:0.8;stroke-linecap:round"
           d="M -3.8048674,-3.9585227 L 0.54352094,0"
           id="path10516" />
        <path
           style="fill:none;fill-rule:evenodd;stroke:context-stroke;stroke-width:0.8;stroke-linecap:round"
           d="M -1.2866832,-3.9585227 L 3.0617053,0"
           id="path10518" />
        <path
           style="fill:none;fill-rule:evenodd;stroke:context-stroke;stroke-width:0.8;stroke-linecap:round"
           d="M 1.3053582,-3.9585227 L 5.6537466,0"
           id="path10520" />
        <path
           style="fill:none;fill-rule:evenodd;stroke:context-stroke;stroke-width:0.8;stroke-linecap:round"
           d="M -3.8048674,4.1775838 L 0.54352094,0.21974226"
           id="path10522" />
        <path
           style="fill:none;fill-rule:evenodd;stroke:context-stroke;stroke-width:0.8;stroke-linecap:round"
           d="M -1.2866832,4.1775838 L 3.0617053,0.21974226"
           id="path10524" />
        <path
           style="fill:none;fill-rule:evenodd;stroke:context-stroke;stroke-width:0.8;stroke-linecap:round"
           d="M 1.3053582,4.1775838 L 5.6537466,0.21974226"
           id="path10526" />
      </g>
    </marker>
    <marker
       style="overflow:visible"
       id="DiamondMstart"
       refX="0.0"
       refY="0.0"
       orient="auto"
       inkscape:stockid="DiamondMstart"
       inkscape:isstock="true">
      <path
         transform="scale(0.4) translate(6.5,0)"
         style="fill-rule:evenodd;fill:context-stroke;stroke:context-stroke;stroke-width:1.0pt"
         d="M 0,-7.0710768 L -7.0710894,0 L 0,7.0710589 L 7.0710462,0 L 0,-7.0710768 z "
         id="path12958" />
    </marker>
    <marker
       style="overflow:visible;"
       id="Arrow1Mend"
       refX="0.0"
       refY="0.0"
       orient="auto"
       inkscape:stockid="Arrow1Mend"
       inkscape:isstock="true">
      <path
         transform="scale(0.4) rotate(180) translate(10,0)"
         style="fill-rule:evenodd;fill:context-stroke;stroke:context-stroke;stroke-width:1.0pt;"
         d="M 0.0,0.0 L 5.0,-5.0 L -12.5,0.0 L 5.0,5.0 L 0.0,0.0 z "
         id="path41453" />
    </marker>
    <marker
       style="overflow:visible"
       id="marker59842"
       refX="0.0"
       refY="0.0"
       orient="auto"
       inkscape:stockid="DiamondM"
       inkscape:isstock="true">
      <path
         transform="scale(0.4)"
         style="fill-rule:evenodd;fill:context-stroke;stroke:context-stroke;stroke-width:1.0pt"
         d="M 0,-7.0710768 L -7.0710894,0 L 0,7.0710589 L 7.0710462,0 L 0,-7.0710768 z "
         id="path59840" />
    </marker>
    <marker
       style="overflow:visible"
       id="CurvyCross"
       refX="0.0"
       refY="0.0"
       orient="auto"
       inkscape:stockid="CurvyCross"
       inkscape:isstock="true">
      <g
         transform="scale(0.6)"
         id="g41638">
        <path
           style="fill:none;fill-rule:evenodd;stroke:context-stroke;stroke-width:1.0pt"
           d="M 4.6254930,-5.0456926 C 1.8654930,-5.0456926 -0.37450702,-2.8056926 -0.37450702,-0.045692580 C -0.37450702,2.7143074 1.8654930,4.9543074 4.6254930,4.9543074"
           id="path41634" />
        <path
           style="fill:none;fill-rule:evenodd;stroke:context-stroke;stroke-width:1.0pt"
           d="M -5.4129913,-5.0456926 C -2.6529913,-5.0456926 -0.41299131,-2.8056926 -0.41299131,-0.045692580 C -0.41299131,2.7143074 -2.6529913,4.9543074 -5.4129913,4.9543074"
           id="path41636" />
      </g>
    </marker>
    <marker
       style="overflow:visible"
       id="EmptyDiamondLend"
       refX="0.0"
       refY="0.0"
       orient="auto"
       inkscape:stockid="EmptyDiamondLend"
       inkscape:isstock="true">
      <path
         transform="scale(0.8) translate(-7,0)"
         style="fill-rule:evenodd;fill:context-fill;stroke:context-stroke;stroke-width:1.0pt"
         d="M 0,-7.0710768 L -7.0710894,0 L 0,7.0710589 L 7.0710462,0 L 0,-7.0710768 z "
         id="path41568" />
    </marker>
    <marker
       style="overflow:visible"
       id="EmptyDiamondL"
       refX="0.0"
       refY="0.0"
       orient="auto"
       inkscape:stockid="EmptyDiamondL"
       inkscape:isstock="true">
      <path
         transform="scale(0.8)"
         style="fill-rule:evenodd;fill:context-fill;stroke:context-stroke;stroke-width:1.0pt"
         d="M 0,-7.0710768 L -7.0710894,0 L 0,7.0710589 L 7.0710462,0 L 0,-7.0710768 z "
         id="path41550" />
    </marker>
    <marker
       style="overflow:visible"
       id="EmptyDiamondM"
       refX="0.0"
       refY="0.0"
       orient="auto"
       inkscape:stockid="EmptyDiamondM"
       inkscape:isstock="true">
      <path
         transform="scale(0.4)"
         style="fill-rule:evenodd;fill:context-fill;stroke:context-stroke;stroke-width:1.0pt"
         d="M 0,-7.0710768 L -7.0710894,0 L 0,7.0710589 L 7.0710462,0 L 0,-7.0710768 z "
         id="path41553" />
    </marker>
    <marker
       style="overflow:visible"
       id="Tail"
       refX="0.0"
       refY="0.0"
       orient="auto"
       inkscape:stockid="Tail"
       inkscape:isstock="true">
      <g
         transform="scale(-1.2)"
         id="g41492">
        <path
           style="fill:none;fill-rule:evenodd;stroke:context-stroke;stroke-width:0.8;stroke-linecap:round"
           d="M -3.8048674,-3.9585227 L 0.54352094,0"
           id="path41480" />
        <path
           style="fill:none;fill-rule:evenodd;stroke:context-stroke;stroke-width:0.8;stroke-linecap:round"
           d="M -1.2866832,-3.9585227 L 3.0617053,0"
           id="path41482" />
        <path
           style="fill:none;fill-rule:evenodd;stroke:context-stroke;stroke-width:0.8;stroke-linecap:round"
           d="M 1.3053582,-3.9585227 L 5.6537466,0"
           id="path41484" />
        <path
           style="fill:none;fill-rule:evenodd;stroke:context-stroke;stroke-width:0.8;stroke-linecap:round"
           d="M -3.8048674,4.1775838 L 0.54352094,0.21974226"
           id="path41486" />
        <path
           style="fill:none;fill-rule:evenodd;stroke:context-stroke;stroke-width:0.8;stroke-linecap:round"
           d="M -1.2866832,4.1775838 L 3.0617053,0.21974226"
           id="path41488" />
        <path
           style="fill:none;fill-rule:evenodd;stroke:context-stroke;stroke-width:0.8;stroke-linecap:round"
           d="M 1.3053582,4.1775838 L 5.6537466,0.21974226"
           id="path41490" />
      </g>
    </marker>
    <marker
       style="overflow:visible"
       id="DiamondM"
       refX="0.0"
       refY="0.0"
       orient="auto"
       inkscape:stockid="DiamondM"
       inkscape:isstock="true">
      <path
         transform="scale(0.4)"
         style="fill-rule:evenodd;fill:context-stroke;stroke:context-stroke;stroke-width:1.0pt"
         d="M 0,-7.0710768 L -7.0710894,0 L 0,7.0710589 L 7.0710462,0 L 0,-7.0710768 z "
         id="path41526" />
    </marker>
    <marker
       style="overflow:visible;"
       id="Arrow1Lend"
       refX="0.0"
       refY="0.0"
       orient="auto"
       inkscape:stockid="Arrow1Lend"
       inkscape:isstock="true">
      <path
         transform="scale(0.8) rotate(180) translate(12.5,0)"
         style="fill-rule:evenodd;fill:context-stroke;stroke:context-stroke;stroke-width:1.0pt;"
         d="M 0.0,0.0 L 5.0,-5.0 L -12.5,0.0 L 5.0,5.0 L 0.0,0.0 z "
         id="path41447" />
    </marker>
    <marker
       inkscape:isstock="true"
       style="overflow:visible"
       id="marker8025"
       refX="0"
       refY="0"
       orient="auto"
       inkscape:stockid="EmptyDiamondLend">
      <path
         inkscape:connector-curvature="0"
         transform="matrix(0.8,0,0,0.8,-5.6,0)"
         style="fill:#ffffff;fill-rule:evenodd;stroke:#000000;stroke-width:1pt;stroke-opacity:1"
         d="M 0,-7.0710768 -7.0710894,0 0,7.0710589 7.0710462,0 Z"
         id="path8027" />
    </marker>
    <marker
       inkscape:isstock="true"
       style="overflow:visible"
       id="marker8031"
       refX="0"
       refY="0"
       orient="auto"
       inkscape:stockid="DiamondMend">
      <path
         inkscape:connector-curvature="0"
         transform="matrix(0.4,0,0,0.4,-2.6,0)"
         style="fill:#000000;fill-opacity:1;fill-rule:evenodd;stroke:#000000;stroke-width:1pt;stroke-opacity:1"
         d="M 0,-7.0710768 -7.0710894,0 0,7.0710589 7.0710462,0 Z"
         id="path8033" />
    </marker>
  </defs>
  <g
     inkscape:label="Layer 1"
     inkscape:groupmode="layer"
     id="layer1">
    <g
       id="g3585"
       transform="matrix(1.1060371,0.00617147,-0.00617147,1.1060371,-33.538382,-23.021387)">
      <rect
         style="fill:#ffe6d5;stroke:#000000;stroke-width:0.140618;stroke-miterlimit:4;stroke-dasharray:none"
         id="rect1532"
         width="22.644533"
         height="5.9434581"
         x="96.436386"
         y="67.374283"
         ry="0" />
      <text
         xml:space="preserve"
         style="font-style:normal;font-variant:normal;font-weight:normal;font-stretch:normal;font-size:1.73454px;line-height:1.25;font-family:FreeSans;-inkscape-font-specification:FreeSans;letter-spacing:0px;word-spacing:0px;fill:#000000;fill-opacity:1;stroke:none;stroke-width:0.0433636"
         x="99.054741"
         y="70.789185"
         id="text1638"><tspan
           sodipodi:role="line"
           id="tspan1636"
           style="font-style:normal;font-variant:normal;font-weight:bold;font-stretch:normal;font-family:FreeSans;-inkscape-font-specification:FreeSans;stroke-width:0.0433636"
           x="99.054741"
           y="70.789185">MosaicTaskManager</tspan></text>
    </g>
    <path
       style="fill:#f4d7d7;stroke:#de8787;stroke-width:0.191496px;stroke-linecap:butt;stroke-linejoin:miter;stroke-opacity:1;marker-start:url(#Tail);marker-end:url(#Tail)"
       d="m 163.75429,93.35134 9.48891,-5.196923 14.61358,-8.00363"
       id="path48634"
       sodipodi:nodetypes="ccc" />
    <text
       xml:space="preserve"
       style="font-style:normal;font-variant:normal;font-weight:normal;font-stretch:normal;font-size:1.51788px;line-height:1.25;font-family:Roboto;-inkscape-font-specification:Roboto;letter-spacing:0px;word-spacing:0px;fill:#216778;fill-opacity:1;stroke:#5fbcd3;stroke-width:0.0379471"
       x="106.31467"
       y="157.51947"
       id="text51840"
       transform="rotate(-28.161413)"><tspan
         sodipodi:role="line"
         id="tspan51838"
         style="fill:#216778;stroke:#5fbcd3;stroke-width:0.0379471"
         x="106.31467"
         y="157.51947">Scheme expressions</tspan></text>
    <g
       id="g148305"
       transform="matrix(0.85890597,0,0,0.85890597,-51.307376,0.26172561)" />
    <g
       id="g149549"
       transform="matrix(0.85890597,0,0,0.85890597,70.375628,-80.763442)">
      <rect
         style="fill:#eef4d7;stroke:#000000;stroke-width:0.248471;stroke-miterlimit:4;stroke-dasharray:none"
         id="rect148299"
         width="43.004051"
         height="9.7715645"
         x="63.856976"
         y="132.74411"
         ry="0" />
      <text
         xml:space="preserve"
         style="font-style:normal;font-variant:normal;font-weight:normal;font-stretch:normal;font-size:3.41044px;line-height:1.25;font-family:FreeSans;-inkscape-font-specification:FreeSans;letter-spacing:0px;word-spacing:0px;fill:#000000;fill-opacity:1;stroke:none;stroke-width:0.0852611"
         x="117.31585"
         y="92.378639"
         id="text148303"
         transform="translate(-50.295135,46.475589)"><tspan
           sodipodi:role="line"
           style="font-style:normal;font-variant:normal;font-weight:normal;font-stretch:normal;font-family:FreeSans;-inkscape-font-specification:FreeSans;stroke-width:0.0852611"
           x="117.31585"
           y="92.378639"
           id="tspan148301">MosaicDatabaseWizard</tspan></text>
      <circle
         style="fill:#ffeeaa;stroke:#000000;stroke-width:0.165;stroke-miterlimit:4;stroke-dasharray:none"
         id="circle148307"
         cx="63.885994"
         cy="132.72267"
         r="1.2183839" />
    </g>
    <path
       style="fill:#f4d7d7;stroke:#de8787;stroke-width:0.165782px;stroke-linecap:butt;stroke-linejoin:miter;stroke-opacity:1;marker-start:url(#Tail);marker-end:url(#Tail)"
       d="m 143.29814,68.204884 -0.0153,-9.366069 -0.0235,-14.4244"
       id="path156883"
       sodipodi:nodetypes="ccc" />
    <g
       id="g3961"
       transform="translate(-34.787436,-14.697983)">
      <rect
         style="fill:#fff6d5;stroke:#000000;stroke-width:0.213413;stroke-miterlimit:4;stroke-dasharray:none"
         id="rect156885"
         width="36.936436"
         height="8.3928547"
         x="75.710556"
         y="96.628815"
         ry="0" />
      <text
         xml:space="preserve"
         style="font-style:normal;font-variant:normal;font-weight:normal;font-stretch:normal;font-size:2.92925px;line-height:1.25;font-family:FreeSans;-inkscape-font-specification:FreeSans;letter-spacing:0px;word-spacing:0px;fill:#000000;fill-opacity:1;stroke:none;stroke-width:0.0732313"
         x="81.273056"
         y="101.89027"
         id="text156889"><tspan
           sodipodi:role="line"
           style="font-style:normal;font-variant:normal;font-weight:normal;font-stretch:normal;font-family:FreeSans;-inkscape-font-specification:FreeSans;stroke-width:0.0732313"
           x="81.273056"
           y="101.89027"
           id="tspan156887">MosaicWaveMorph</tspan></text>
      <path
         style="fill:none;stroke:#000000;stroke-width:0.408333;stroke-linecap:butt;stroke-linejoin:miter;stroke-miterlimit:4;stroke-dasharray:0.204167, 0.204167;stroke-dashoffset:0;stroke-opacity:1;marker-end:url(#Arrow1Mend)"
         d="M 108.77598,47.726782 95.98276,95.471719"
         id="path158925" />
      <text
         xml:space="preserve"
         style="font-style:normal;font-variant:normal;font-weight:normal;font-stretch:normal;font-size:1.51788px;line-height:1.25;font-family:Roboto;-inkscape-font-specification:Roboto;letter-spacing:0px;word-spacing:0px;fill:#216778;fill-opacity:1;stroke:#5fbcd3;stroke-width:0.0379471"
         x="87.619583"
         y="79.805542"
         id="text159017"
         transform="rotate(-0.11614945)"><tspan
           sodipodi:role="line"
           id="tspan159015"
           style="fill:#216778;stroke:#5fbcd3;stroke-width:0.0379471"
           x="87.619583"
           y="79.805542">waveform images</tspan></text>
    </g>
    <rect
       style="fill:#e2e3db;stroke:#000000;stroke-width:0.139423;stroke-miterlimit:4;stroke-dasharray:none"
       id="rect67577"
       width="24.124645"
       height="5.4844174"
       x="148.08405"
       y="20.052299"
       ry="0" />
    <text
       xml:space="preserve"
       style="font-style:normal;font-variant:normal;font-weight:normal;font-stretch:normal;font-size:1.91321px;line-height:1.25;font-family:FreeSans;-inkscape-font-specification:FreeSans;letter-spacing:0px;word-spacing:0px;fill:#000000;fill-opacity:1;stroke:none;stroke-width:0.0478303"
       x="152.54997"
       y="23.294811"
       id="text67581"><tspan
         sodipodi:role="line"
         style="font-style:normal;font-variant:normal;font-weight:normal;font-stretch:normal;font-family:FreeSans;-inkscape-font-specification:FreeSans;stroke-width:0.0478303"
         x="152.54997"
         y="23.294811"
         id="tspan67579">MosaicSequencer</tspan></text>
    <rect
       style="fill:#e2e3db;stroke:#000000;stroke-width:0.139423;stroke-miterlimit:4;stroke-dasharray:none"
       id="rect149551"
       width="24.124647"
       height="5.4844155"
       x="148.08405"
       y="25.536715"
       ry="0" />
    <text
       xml:space="preserve"
       style="font-style:normal;font-variant:normal;font-weight:normal;font-stretch:normal;font-size:1.91321px;line-height:1.25;font-family:FreeSans;-inkscape-font-specification:FreeSans;letter-spacing:0px;word-spacing:0px;fill:#000000;fill-opacity:1;stroke:none;stroke-width:0.0478303"
       x="152.24196"
       y="28.954287"
       id="text149555"><tspan
         sodipodi:role="line"
         style="font-style:normal;font-variant:normal;font-weight:normal;font-stretch:normal;font-family:FreeSans;-inkscape-font-specification:FreeSans;stroke-width:0.0478303"
         x="152.24196"
         y="28.954287"
         id="tspan149553">MosaicBeatWizard</tspan></text>
    <circle
       style="fill:#ffeeaa;stroke:#000000;stroke-width:0.0925623;stroke-miterlimit:4;stroke-dasharray:none"
       id="circle67583"
       cx="148.10167"
       cy="20.041637"
       r="0.68349576" />
    <circle
       style="fill:#ffeeaa;stroke:#000000;stroke-width:0.0925623;stroke-miterlimit:4;stroke-dasharray:none"
       id="circle149557"
       cx="148.10167"
       cy="25.526054"
       r="0.68349576" />
    <text
       xml:space="preserve"
       style="font-style:normal;font-variant:normal;font-weight:normal;font-stretch:normal;font-size:2.40525px;line-height:1.25;font-family:Roboto;-inkscape-font-specification:Roboto;letter-spacing:0px;word-spacing:0px;fill:#000000;fill-opacity:1;stroke:none;stroke-width:0.0601311"
       x="139.22107"
       y="67.038696"
       id="text164521"><tspan
         sodipodi:role="line"
         id="tspan164519"
         style="font-style:normal;font-variant:normal;font-weight:normal;font-stretch:normal;font-family:FreeSans;-inkscape-font-specification:FreeSans;stroke-width:0.0601311"
         x="139.22107"
         y="67.038696">1</tspan></text>
    <text
       xml:space="preserve"
       style="font-style:normal;font-variant:normal;font-weight:normal;font-stretch:normal;font-size:2.40525px;line-height:1.25;font-family:Roboto;-inkscape-font-specification:Roboto;letter-spacing:0px;word-spacing:0px;fill:#000000;fill-opacity:1;stroke:none;stroke-width:0.0601311"
       x="147.45764"
       y="70.225357"
       id="text164525"><tspan
         sodipodi:role="line"
         id="tspan164523"
         style="font-style:normal;font-variant:normal;font-weight:normal;font-stretch:normal;font-family:FreeSans;-inkscape-font-specification:FreeSans;stroke-width:0.0601311"
         x="147.45764"
         y="70.225357">1</tspan></text>
    <g
       id="g69798"
       transform="matrix(1.2247769,0,0,1.2247769,169.03163,-10.00153)">
      <rect
         ry="9.4073248"
         y="21.245153"
         x="18.367466"
         height="36.582821"
         width="46.039036"
         id="rect12510"
         style="fill:#ffffff;fill-opacity:1;stroke:#000000;stroke-width:0.0860023;stroke-miterlimit:4;stroke-dasharray:none;stroke-dashoffset:0" />
      <circle
         style="fill:#ffeeaa;stroke:#000000;stroke-width:0.107289;stroke-miterlimit:4;stroke-dasharray:none"
         id="circle149557-3"
         cx="36.453762"
         cy="43.987835"
         r="0.79223961" />
      <path
         inkscape:connector-curvature="0"
         inkscape:export-ydpi="887.09003"
         inkscape:export-xdpi="887.09003"
         sodipodi:nodetypes="cc"
         id="path8023"
         d="m 23.363341,32.950431 14.292264,-0.0414"
         style="fill:none;fill-rule:evenodd;stroke:#000000;stroke-width:0.177267;stroke-linecap:butt;stroke-linejoin:miter;stroke-miterlimit:4;stroke-dasharray:none;stroke-opacity:1;marker-end:url(#marker8025)" />
      <path
         inkscape:export-ydpi="887.09003"
         inkscape:export-xdpi="887.09003"
         sodipodi:nodetypes="cc"
         style="fill:none;fill-rule:evenodd;stroke:#000000;stroke-width:0.195242;stroke-linecap:butt;stroke-linejoin:miter;stroke-miterlimit:4;stroke-dasharray:none;stroke-opacity:1;marker-end:url(#marker8031)"
         d="M 25.94048,36.847562 H 37.168365"
         id="path8029"
         inkscape:connector-curvature="0" />
      <text
         inkscape:export-ydpi="887.09003"
         inkscape:export-xdpi="887.09003"
         xml:space="preserve"
         style="font-style:normal;font-weight:normal;font-size:3.64783px;line-height:0%;font-family:sans-serif;letter-spacing:0px;word-spacing:0px;fill:#000000;fill-opacity:1;stroke:none;stroke-width:0.303985px;stroke-linecap:butt;stroke-linejoin:miter;stroke-opacity:1"
         x="40.51371"
         y="32.784824"
         id="text8035"
         transform="scale(0.98139462,1.0189581)"><tspan
           sodipodi:role="line"
           id="tspan8037"
           x="40.51371"
           y="32.784824"
           style="font-style:italic;font-variant:normal;font-weight:normal;font-stretch:normal;font-size:1.69984px;line-height:125%;font-family:FreeSans;-inkscape-font-specification:'FreeSans, Italic';text-align:start;writing-mode:lr-tb;text-anchor:start;stroke-width:0.303985px">inheritance </tspan></text>
      <text
         id="text8039"
         y="36.629364"
         x="40.229771"
         style="font-style:normal;font-weight:normal;font-size:3.64783px;line-height:0%;font-family:sans-serif;letter-spacing:0px;word-spacing:0px;fill:#000000;fill-opacity:1;stroke:none;stroke-width:0.303985px;stroke-linecap:butt;stroke-linejoin:miter;stroke-opacity:1"
         xml:space="preserve"
         inkscape:export-xdpi="887.09003"
         inkscape:export-ydpi="887.09003"
         transform="scale(0.98139462,1.0189581)"><tspan
           style="font-style:italic;font-variant:normal;font-weight:normal;font-stretch:normal;font-size:1.69984px;line-height:125%;font-family:FreeSans;-inkscape-font-specification:'FreeSans, Italic';text-align:start;writing-mode:lr-tb;text-anchor:start;stroke-width:0.303985px"
           y="36.629364"
           x="40.229771"
           id="tspan8041"
           sodipodi:role="line">composition</tspan></text>
      <text
         xml:space="preserve"
         style="font-style:normal;font-weight:normal;font-size:3.64783px;line-height:0%;font-family:sans-serif;letter-spacing:0px;word-spacing:0px;fill:#000000;fill-opacity:1;stroke:none;stroke-width:0.303985px;stroke-linecap:butt;stroke-linejoin:miter;stroke-opacity:1"
         x="31.567293"
         y="26.760283"
         id="text15752"
         transform="scale(0.98139462,1.0189581)"><tspan
           id="tspan15756"
           sodipodi:role="line"
           x="31.567293"
           y="26.760283"
           style="font-style:italic;font-variant:normal;font-weight:normal;font-stretch:normal;font-size:1.83775px;line-height:125%;font-family:FreeSans;-inkscape-font-specification:'FreeSans, Italic';text-align:start;writing-mode:lr-tb;text-anchor:start;stroke-width:0.303985px">KEY TO SYMBOLS</tspan></text>
      <ellipse
         cy="40.646633"
         cx="34.206165"
         id="circle16334"
         style="fill:#000000;fill-opacity:1;stroke-width:0.18156;stroke-miterlimit:4;stroke-dasharray:none"
         rx="0.44940814"
         ry="0.46660951" />
      <ellipse
         style="fill:#000000;fill-opacity:1;stroke-width:0.18156;stroke-miterlimit:4;stroke-dasharray:none"
         id="circle16336"
         cx="36.565556"
         cy="40.646633"
         rx="0.44940814"
         ry="0.46660951" />
      <ellipse
         cy="40.646633"
         cx="35.385876"
         id="circle16338"
         style="fill:#000000;fill-opacity:1;stroke-width:0.18156;stroke-miterlimit:4;stroke-dasharray:none"
         rx="0.44940814"
         ry="0.46660951" />
      <text
         inkscape:export-ydpi="887.09003"
         inkscape:export-xdpi="887.09003"
         xml:space="preserve"
         style="font-style:normal;font-weight:normal;font-size:3.64783px;line-height:0%;font-family:sans-serif;letter-spacing:0px;word-spacing:0px;fill:#000000;fill-opacity:1;stroke:none;stroke-width:0.303985px;stroke-linecap:butt;stroke-linejoin:miter;stroke-opacity:1"
         x="40.229771"
         y="40.26376"
         id="text16340"
         transform="scale(0.98139462,1.0189581)"><tspan
           sodipodi:role="line"
           id="tspan16342"
           x="40.229771"
           y="40.26376"
           style="font-style:italic;font-variant:normal;font-weight:normal;font-stretch:normal;font-size:1.69984px;line-height:125%;font-family:FreeSans;-inkscape-font-specification:'FreeSans, Italic';text-align:start;writing-mode:lr-tb;text-anchor:start;stroke-width:0.303985px">more subclasses</tspan></text>
      <text
         inkscape:export-ydpi="887.09003"
         inkscape:export-xdpi="887.09003"
         xml:space="preserve"
         style="font-style:normal;font-weight:normal;font-size:3.64783px;line-height:0%;font-family:sans-serif;letter-spacing:0px;word-spacing:0px;fill:#000000;fill-opacity:1;stroke:none;stroke-width:0.303985px;stroke-linecap:butt;stroke-linejoin:miter;stroke-opacity:1"
         x="39.928074"
         y="43.782612"
         id="text930"
         transform="scale(0.98139462,1.0189581)"><tspan
           sodipodi:role="line"
           id="tspan928"
           x="39.928074"
           y="43.782612"
           style="font-style:italic;font-variant:normal;font-weight:normal;font-stretch:normal;font-size:1.69984px;line-height:125%;font-family:FreeSans;-inkscape-font-specification:'FreeSans, Italic';text-align:start;writing-mode:lr-tb;text-anchor:start;stroke-width:0.303985px">has Morphic Designer class</tspan></text>
      <text
         xml:space="preserve"
         style="font-style:normal;font-variant:normal;font-weight:normal;font-stretch:normal;font-size:2.40525px;line-height:1.25;font-family:Roboto;-inkscape-font-specification:Roboto;letter-spacing:0px;word-spacing:0px;fill:#000000;fill-opacity:1;stroke:none;stroke-width:0.0601311"
         x="34.707218"
         y="48.731594"
         id="text34892"><tspan
           sodipodi:role="line"
           id="tspan34890"
           style="font-style:normal;font-variant:normal;font-weight:normal;font-stretch:normal;font-family:FreeSans;-inkscape-font-specification:FreeSans;stroke-width:0.0601311"
           x="34.707218"
           y="48.731594">1+</tspan></text>
      <text
         inkscape:export-ydpi="887.09003"
         inkscape:export-xdpi="887.09003"
         xml:space="preserve"
         style="font-style:normal;font-weight:normal;font-size:3.64783px;line-height:0%;font-family:sans-serif;letter-spacing:0px;word-spacing:0px;fill:#000000;fill-opacity:1;stroke:none;stroke-width:0.303985px;stroke-linecap:butt;stroke-linejoin:miter;stroke-opacity:1"
         x="40.065426"
         y="47.658146"
         id="text34896"
         transform="scale(0.98139462,1.0189581)"><tspan
           sodipodi:role="line"
           id="tspan34894"
           x="40.065426"
           y="47.658146"
           style="font-style:italic;font-variant:normal;font-weight:normal;font-stretch:normal;font-size:1.69984px;line-height:125%;font-family:FreeSans;-inkscape-font-specification:'FreeSans, Italic';text-align:start;writing-mode:lr-tb;text-anchor:start;stroke-width:0.303985px">relation arity</tspan></text>
      <path
         style="fill:#f4d7d7;stroke:#de8787;stroke-width:0.0827607px;stroke-linecap:butt;stroke-linejoin:miter;stroke-opacity:1;marker-start:url(#Tail);marker-end:url(#Tail)"
         d="m 37.24945,51.461179 -4.675681,0.0076 -7.200877,0.01175"
         id="path36288"
         sodipodi:nodetypes="ccc" />
      <text
         inkscape:export-ydpi="887.09003"
         inkscape:export-xdpi="887.09003"
         xml:space="preserve"
         style="font-style:normal;font-weight:normal;font-size:3.64783px;line-height:0%;font-family:sans-serif;letter-spacing:0px;word-spacing:0px;fill:#000000;fill-opacity:1;stroke:none;stroke-width:0.303985px;stroke-linecap:butt;stroke-linejoin:miter;stroke-opacity:1"
         x="39.884068"
         y="51.023853"
         id="text38208"
         transform="scale(0.98139462,1.0189581)"><tspan
           sodipodi:role="line"
           id="tspan38206"
           x="39.884068"
           y="51.023853"
           style="font-style:italic;font-variant:normal;font-weight:normal;font-stretch:normal;font-size:1.69984px;line-height:125%;font-family:FreeSans;-inkscape-font-specification:'FreeSans, Italic';text-align:start;writing-mode:lr-tb;text-anchor:start;stroke-width:0.303985px">Scheme dataflow</tspan></text>
    </g>
    <g
       id="g10416"
       transform="translate(21.76009,23.791078)">
      <circle
         style="fill:#ffeeaa;stroke:#000000;stroke-width:0.141719;stroke-miterlimit:4;stroke-dasharray:none"
         id="path40940"
         cx="171.3558"
         cy="51.036739"
         r="1.0464772" />
      <g
         id="g41154"
         transform="matrix(0.85890597,0,0,0.85890597,62.284746,19.303226)">
        <g
           id="g40901">
          <rect
             style="fill:#eef4d7;stroke:#000000;stroke-width:0.234784;stroke-miterlimit:4;stroke-dasharray:none"
             id="rect37892"
             width="38.342747"
             height="9.7852526"
             x="126.91768"
             y="63.678009"
             ry="0" />
          <text
             xml:space="preserve"
             style="font-style:normal;font-variant:normal;font-weight:normal;font-stretch:normal;font-size:3.41044px;line-height:1.25;font-family:FreeSans;-inkscape-font-specification:FreeSans;letter-spacing:0px;word-spacing:0px;fill:#000000;fill-opacity:1;stroke:none;stroke-width:0.0852611"
             x="130.47269"
             y="69.462463"
             id="text37896"><tspan
               sodipodi:role="line"
               style="font-style:normal;font-variant:normal;font-weight:normal;font-stretch:normal;font-family:FreeSans;-inkscape-font-specification:FreeSans;stroke-width:0.0852611"
               x="130.47269"
               y="69.462463"
               id="tspan37894">MosaicChopperTask</tspan></text>
        </g>
        <circle
           style="fill:#ffeeaa;stroke:#000000;stroke-width:0.165;stroke-miterlimit:4;stroke-dasharray:none"
           id="circle41138"
           cx="126.98836"
           cy="63.610237"
           r="1.2183839" />
      </g>
      <g
         id="g41161"
         transform="matrix(0.85890597,0,0,0.85890597,73.284948,22.857391)">
        <g
           id="g40906">
          <rect
             style="fill:#eef4d7;stroke:#000000;stroke-width:0.225978;stroke-miterlimit:4;stroke-dasharray:none"
             id="rect39681"
             width="35.488693"
             height="9.7940588"
             x="114.14087"
             y="86.257263"
             ry="0" />
          <text
             xml:space="preserve"
             style="font-style:normal;font-variant:normal;font-weight:normal;font-stretch:normal;font-size:3.41044px;line-height:1.25;font-family:FreeSans;-inkscape-font-specification:FreeSans;letter-spacing:0px;word-spacing:0px;fill:#000000;fill-opacity:1;stroke:none;stroke-width:0.0852611"
             x="117.31585"
             y="92.378639"
             id="text39685"><tspan
               sodipodi:role="line"
               style="font-style:normal;font-variant:normal;font-weight:normal;font-stretch:normal;font-family:FreeSans;-inkscape-font-specification:FreeSans;stroke-width:0.0852611"
               x="117.31585"
               y="92.378639"
               id="tspan39683">MosaicSchemePair</tspan></text>
        </g>
        <circle
           style="fill:#ffeeaa;stroke:#000000;stroke-width:0.165;stroke-miterlimit:4;stroke-dasharray:none"
           id="circle41140"
           cx="114.18113"
           cy="86.247086"
           r="1.2183839" />
      </g>
      <g
         id="g10340">
        <rect
           style="fill:#eef4d7;fill-opacity:1;stroke:#000000;stroke-width:0.180531;stroke-miterlimit:4;stroke-dasharray:none"
           id="rect37848"
           width="26.327761"
           height="8.4257383"
           x="171.2299"
           y="50.939301"
           ry="0" />
        <text
           xml:space="preserve"
           style="font-style:normal;font-variant:normal;font-weight:normal;font-stretch:normal;font-size:2.92925px;line-height:1.25;font-family:FreeSans;-inkscape-font-specification:FreeSans;letter-spacing:0px;word-spacing:0px;fill:#000000;fill-opacity:1;stroke:none;stroke-width:0.0732313"
           x="174.19124"
           y="55.918167"
           id="text4371"><tspan
             sodipodi:role="line"
             style="font-style:normal;font-variant:normal;font-weight:normal;font-stretch:normal;font-family:FreeSans;-inkscape-font-specification:FreeSans;stroke-width:0.0732313"
             x="174.19124"
             y="55.918167"
             id="tspan4373">MosaicChopper</tspan></text>
        <path
           style="fill:none;stroke:#000000;stroke-width:0.227252px;stroke-linecap:butt;stroke-linejoin:miter;stroke-opacity:1;marker-end:url(#DiamondM)"
           d="m 185.11131,59.489974 v 14.41342"
           id="path41442" />
        <path
           style="fill:none;stroke:#000000;stroke-width:0.227252px;stroke-linecap:butt;stroke-linejoin:miter;stroke-opacity:1;marker-end:url(#DiamondM)"
           d="m 185.11131,82.558131 v 14.24718"
           id="path41720" />
        <text
           xml:space="preserve"
           style="font-style:normal;font-variant:normal;font-weight:normal;font-stretch:normal;font-size:2.40525px;line-height:1.25;font-family:Roboto;-inkscape-font-specification:Roboto;letter-spacing:0px;word-spacing:0px;fill:#000000;fill-opacity:1;stroke:none;stroke-width:0.0601311"
           x="186.22318"
           y="72.652611"
           id="text43436"><tspan
             sodipodi:role="line"
             id="tspan43434"
             style="font-style:normal;font-variant:normal;font-weight:normal;font-stretch:normal;font-family:FreeSans;-inkscape-font-specification:FreeSans;stroke-width:0.0601311"
             x="186.22318"
             y="72.652611">1+</tspan></text>
        <text
           xml:space="preserve"
           style="font-style:normal;font-variant:normal;font-weight:normal;font-stretch:normal;font-size:2.40525px;line-height:1.25;font-family:Roboto;-inkscape-font-specification:Roboto;letter-spacing:0px;word-spacing:0px;fill:#000000;fill-opacity:1;stroke:none;stroke-width:0.0601311"
           x="186.22318"
           y="95.481003"
           id="text48478"><tspan
             sodipodi:role="line"
             id="tspan48476"
             style="font-style:normal;font-variant:normal;font-weight:normal;font-stretch:normal;font-family:FreeSans;-inkscape-font-specification:FreeSans;stroke-width:0.0601311"
             x="186.22318"
             y="95.481003">1+</tspan></text>
        <path
           style="fill:#f4d7d7;stroke:#de8787;stroke-width:0.121306px;stroke-linecap:butt;stroke-linejoin:miter;stroke-opacity:1;marker-start:url(#Tail);marker-end:url(#Tail)"
           d="m 178.2817,84.454481 -0.0144,4.42751 -0.0222,6.81869"
           id="path57130"
           sodipodi:nodetypes="ccc" />
        <path
           style="fill:#f4d7d7;stroke:#de8787;stroke-width:0.121306px;stroke-linecap:butt;stroke-linejoin:miter;stroke-opacity:1;marker-start:url(#Tail);marker-end:url(#Tail)"
           d="m 178.27148,61.385546 -0.007,4.427532 -0.0101,6.818696"
           id="path57132"
           sodipodi:nodetypes="ccc" />
        <g
           id="g54430"
           transform="matrix(0.85890597,0,0,0.85890597,123.31215,86.617731)">
          <g
             id="g46243"
             transform="matrix(1.4431149,0,0,0.99615678,-105.30946,-22.096219)"
             style="fill:#fff6d5">
            <g
               id="g46241"
               transform="translate(-5.6560378,12.698862)"
               style="fill:#fff6d5">
              <rect
                 style="fill:#fff6d5;stroke:#000000;stroke-width:0.190506;stroke-miterlimit:4;stroke-dasharray:none"
                 id="rect46235"
                 width="25.130527"
                 height="9.8295307"
                 x="117.27106"
                 y="48.463207"
                 ry="0" />
              <text
                 xml:space="preserve"
                 style="font-style:normal;font-variant:normal;font-weight:normal;font-stretch:normal;font-size:3.41044px;line-height:1.25;font-family:FreeSans;-inkscape-font-specification:FreeSans;letter-spacing:0px;word-spacing:0px;fill:#fff6d5;fill-opacity:1;stroke:none;stroke-width:0.0852611"
                 x="124.38986"
                 y="54.58186"
                 id="text46239"><tspan
                   sodipodi:role="line"
                   id="tspan46237"
                   style="font-style:normal;font-variant:normal;font-weight:normal;font-stretch:normal;font-family:FreeSans;-inkscape-font-specification:FreeSans;fill:#fff6d5;stroke-width:0.0852611"
                   x="124.38986"
                   y="54.58186">Mosaic</tspan></text>
            </g>
          </g>
          <text
             xml:space="preserve"
             style="font-style:normal;font-variant:normal;font-weight:normal;font-stretch:normal;font-size:3.41044px;line-height:1.25;font-family:FreeSans;-inkscape-font-specification:FreeSans;letter-spacing:0px;word-spacing:0px;fill:#000000;fill-opacity:1;stroke:none;stroke-width:0.0852611"
             x="61.445488"
             y="44.951015"
             id="text46247"><tspan
               sodipodi:role="line"
               id="tspan46245"
               style="font-style:normal;font-variant:normal;font-weight:normal;font-stretch:normal;font-family:FreeSans;-inkscape-font-specification:FreeSans;stroke-width:0.0852611"
               x="61.445488"
               y="44.951015">MosaicCellMorph</tspan></text>
        </g>
        <g
           id="g4884"
           transform="matrix(1.1624651,0,0,1.1624651,2.7957364,-21.137597)">
          <rect
             style="fill:#f9f9f9;stroke:#4d4d4d;stroke-width:0.204397;stroke-miterlimit:4;stroke-dasharray:none;stroke-dashoffset:0"
             id="rect66572"
             width="61.956833"
             height="36.725555"
             x="146.77356"
             y="139.3139"
             ry="9.7914076" />
          <ellipse
             cy="172.08893"
             cx="184.21635"
             id="circle16334-7"
             style="fill:#000000;fill-opacity:1;stroke-width:0.132236;stroke-miterlimit:4;stroke-dasharray:none"
             rx="0.32731783"
             ry="0.3398461" />
          <ellipse
             style="fill:#000000;fill-opacity:1;stroke-width:0.132236;stroke-miterlimit:4;stroke-dasharray:none"
             id="circle16336-5"
             cx="185.93477"
             cy="172.08893"
             rx="0.32731783"
             ry="0.3398461" />
          <ellipse
             cy="172.08893"
             cx="185.07556"
             id="circle16338-3"
             style="fill:#000000;fill-opacity:1;stroke-width:0.132236;stroke-miterlimit:4;stroke-dasharray:none"
             rx="0.32731783"
             ry="0.3398461" />
          <g
             id="g56770"
             transform="matrix(0.52405353,0,0,0.52405353,128.47635,121.90992)">
            <g
               id="g54440"
               transform="matrix(1.4431149,0,0,0.99615678,-105.30946,-22.096219)"
               style="fill:#fff6d5">
              <g
                 id="g54438"
                 transform="translate(-5.6560378,12.698862)"
                 style="fill:#fff6d5">
                <rect
                   style="fill:#fff6d5;stroke:#000000;stroke-width:0.190506;stroke-miterlimit:4;stroke-dasharray:none"
                   id="rect54432"
                   width="25.130527"
                   height="9.8295307"
                   x="117.27106"
                   y="48.463207"
                   ry="0" />
                <text
                   xml:space="preserve"
                   style="font-style:normal;font-variant:normal;font-weight:normal;font-stretch:normal;font-size:3.41044px;line-height:1.25;font-family:FreeSans;-inkscape-font-specification:FreeSans;letter-spacing:0px;word-spacing:0px;fill:#fff6d5;fill-opacity:1;stroke:none;stroke-width:0.0852611"
                   x="124.38986"
                   y="54.58186"
                   id="text54436"><tspan
                     sodipodi:role="line"
                     id="tspan54434"
                     style="font-style:normal;font-variant:normal;font-weight:normal;font-stretch:normal;font-family:FreeSans;-inkscape-font-specification:FreeSans;fill:#fff6d5;stroke-width:0.0852611"
                     x="124.38986"
                     y="54.58186">Mosaic</tspan></text>
              </g>
            </g>
            <text
               xml:space="preserve"
               style="font-style:normal;font-variant:normal;font-weight:normal;font-stretch:normal;font-size:3.41044px;line-height:1.25;font-family:FreeSans;-inkscape-font-specification:FreeSans;letter-spacing:0px;word-spacing:0px;fill:#000000;fill-opacity:1;stroke:none;stroke-width:0.0852611"
               x="62.234985"
               y="44.951015"
               id="text54444"><tspan
                 sodipodi:role="line"
                 id="tspan54442"
                 style="font-style:normal;font-variant:normal;font-weight:normal;font-stretch:normal;font-family:FreeSans;-inkscape-font-specification:FreeSans;stroke-width:0.0852611"
                 x="62.234985"
                 y="44.951015">MosaicFileCell</tspan></text>
          </g>
          <g
             id="g56761"
             transform="matrix(0.52405353,0,0,0.52405353,113.41034,128.23441)">
            <g
               id="g55602"
               transform="matrix(1.4431149,0,0,0.99615678,-62.438209,-20.741904)"
               style="fill:#fff6d5">
              <g
                 id="g55600"
                 transform="translate(-5.6560378,12.698862)"
                 style="fill:#fff6d5">
                <rect
                   style="fill:#fff6d5;stroke:#000000;stroke-width:0.190506;stroke-miterlimit:4;stroke-dasharray:none"
                   id="rect55594"
                   width="25.130527"
                   height="9.8295307"
                   x="117.27106"
                   y="48.463207"
                   ry="0" />
                <text
                   xml:space="preserve"
                   style="font-style:normal;font-variant:normal;font-weight:normal;font-stretch:normal;font-size:3.41044px;line-height:1.25;font-family:FreeSans;-inkscape-font-specification:FreeSans;letter-spacing:0px;word-spacing:0px;fill:#fff6d5;fill-opacity:1;stroke:none;stroke-width:0.0852611"
                   x="124.38986"
                   y="54.58186"
                   id="text55598"><tspan
                     sodipodi:role="line"
                     id="tspan55596"
                     style="font-style:normal;font-variant:normal;font-weight:normal;font-stretch:normal;font-family:FreeSans;-inkscape-font-specification:FreeSans;fill:#fff6d5;stroke-width:0.0852611"
                     x="124.38986"
                     y="54.58186">Mosaic</tspan></text>
              </g>
            </g>
            <text
               xml:space="preserve"
               style="font-style:normal;font-variant:normal;font-weight:normal;font-stretch:normal;font-size:3.41044px;line-height:1.25;font-family:FreeSans;-inkscape-font-specification:FreeSans;letter-spacing:0px;word-spacing:0px;fill:#000000;fill-opacity:1;stroke:none;stroke-width:0.0852611"
               x="103.17422"
               y="46.305332"
               id="text55606"><tspan
                 sodipodi:role="line"
                 id="tspan55604"
                 style="font-style:normal;font-variant:normal;font-weight:normal;font-stretch:normal;font-family:FreeSans;-inkscape-font-specification:FreeSans;stroke-width:0.0852611"
                 x="103.17422"
                 y="46.305332">MosaicRowCell</tspan></text>
          </g>
          <g
             id="g56786"
             transform="matrix(0.52405353,0,0,0.52405353,109.54715,127.26557)">
            <g
               id="g58419"
               transform="translate(64.375885,16.625804)">
              <g
                 id="g56780"
                 transform="matrix(1.6987612,0,0,0.99419946,-133.82973,-21.966886)"
                 style="fill:#fff6d5">
                <g
                   id="g56778"
                   transform="translate(-5.6560378,12.698862)"
                   style="fill:#fff6d5">
                  <rect
                     style="fill:#fff6d5;stroke:#000000;stroke-width:0.190506;stroke-miterlimit:4;stroke-dasharray:none"
                     id="rect56772"
                     width="25.130527"
                     height="9.8295307"
                     x="117.27106"
                     y="48.463207"
                     ry="0" />
                  <text
                     xml:space="preserve"
                     style="font-style:normal;font-variant:normal;font-weight:normal;font-stretch:normal;font-size:3.41044px;line-height:1.25;font-family:FreeSans;-inkscape-font-specification:FreeSans;letter-spacing:0px;word-spacing:0px;fill:#fff6d5;fill-opacity:1;stroke:none;stroke-width:0.0852611"
                     x="124.38986"
                     y="54.58186"
                     id="text56776"><tspan
                       sodipodi:role="line"
                       id="tspan56774"
                       style="font-style:normal;font-variant:normal;font-weight:normal;font-stretch:normal;font-family:FreeSans;-inkscape-font-specification:FreeSans;fill:#fff6d5;stroke-width:0.0852611"
                       x="124.38986"
                       y="54.58186">Mosaic</tspan></text>
                </g>
              </g>
              <text
                 xml:space="preserve"
                 style="font-style:normal;font-variant:normal;font-weight:normal;font-stretch:normal;font-size:3.41044px;line-height:1.25;font-family:FreeSans;-inkscape-font-specification:FreeSans;letter-spacing:0px;word-spacing:0px;fill:#000000;fill-opacity:1;stroke:none;stroke-width:0.0852611"
                 x="62.234985"
                 y="44.951015"
                 id="text56784"><tspan
                   sodipodi:role="line"
                   id="tspan56782"
                   style="font-style:normal;font-variant:normal;font-weight:normal;font-stretch:normal;font-family:FreeSans;-inkscape-font-specification:FreeSans;stroke-width:0.0852611"
                   x="62.234985"
                   y="44.951015">MosaicDirectoryCell</tspan></text>
            </g>
          </g>
          <g
             id="g64515"
             transform="matrix(0.89024181,0,0,0.52101374,80.55044,131.50078)"
             style="fill:#fff6d5">
            <g
               id="g64513"
               transform="translate(-5.6560378,12.698862)"
               style="fill:#fff6d5">
              <rect
                 style="fill:#fff6d5;stroke:#000000;stroke-width:0.190506;stroke-miterlimit:4;stroke-dasharray:none"
                 id="rect64507"
                 width="25.130527"
                 height="9.8295307"
                 x="117.27106"
                 y="48.463207"
                 ry="0" />
              <text
                 xml:space="preserve"
                 style="font-style:normal;font-variant:normal;font-weight:normal;font-stretch:normal;font-size:3.41044px;line-height:1.25;font-family:FreeSans;-inkscape-font-specification:FreeSans;letter-spacing:0px;word-spacing:0px;fill:#fff6d5;fill-opacity:1;stroke:none;stroke-width:0.0852611"
                 x="124.38986"
                 y="54.58186"
                 id="text64511"><tspan
                   sodipodi:role="line"
                   id="tspan64509"
                   style="font-style:normal;font-variant:normal;font-weight:normal;font-stretch:normal;font-family:FreeSans;-inkscape-font-specification:FreeSans;fill:#fff6d5;stroke-width:0.0852611"
                   x="124.38986"
                   y="54.58186">Mosaic</tspan></text>
            </g>
          </g>
          <text
             xml:space="preserve"
             style="font-style:normal;font-variant:normal;font-weight:normal;font-stretch:normal;font-size:1.78725px;line-height:1.25;font-family:FreeSans;-inkscape-font-specification:FreeSans;letter-spacing:0px;word-spacing:0px;fill:#000000;fill-opacity:1;stroke:none;stroke-width:0.0446814"
             x="183.29884"
             y="166.56934"
             id="text64519"><tspan
               sodipodi:role="line"
               id="tspan64517"
               style="font-style:normal;font-variant:normal;font-weight:normal;font-stretch:normal;font-family:FreeSans;-inkscape-font-specification:FreeSans;stroke-width:0.0446814"
               x="183.29884"
               y="166.56934">MosaicFunctionCell</tspan></text>
        </g>
        <path
           style="fill:#ffffff;stroke:#000000;stroke-width:0.264583;stroke-linecap:butt;stroke-linejoin:miter;stroke-miterlimit:3.9;stroke-dasharray:none;stroke-opacity:1;marker-end:url(#EmptyDiamondL)"
           d="m 185.76157,128.67146 v 10.42212"
           id="path66373" />
        <path
           style="fill:none;stroke:#000000;stroke-width:0.264583px;stroke-linecap:butt;stroke-linejoin:miter;stroke-opacity:1;marker-end:url(#DiamondM)"
           d="m 185.39882,105.5809 v 14.32812"
           id="path48195" />
        <text
           xml:space="preserve"
           style="font-style:normal;font-variant:normal;font-weight:normal;font-stretch:normal;font-size:2.40525px;line-height:1.25;font-family:Roboto;-inkscape-font-specification:Roboto;letter-spacing:0px;word-spacing:0px;fill:#000000;fill-opacity:1;stroke:none;stroke-width:0.0601311"
           x="186.8774"
           y="118.4527"
           id="text71463"><tspan
             sodipodi:role="line"
             id="tspan71461"
             style="font-style:normal;font-variant:normal;font-weight:normal;font-stretch:normal;font-family:FreeSans;-inkscape-font-specification:FreeSans;stroke-width:0.0601311"
             x="186.8774"
             y="118.4527">1</tspan></text>
      </g>
    </g>
    <g
       id="g640"
       transform="matrix(0.85890597,0,0,0.85890597,-29.737005,38.672896)" />
    <rect
       style="fill:#e2dbe3;stroke:#000000;stroke-width:0.198913;stroke-miterlimit:4;stroke-dasharray:none"
       id="rect634"
       width="32.031967"
       height="8.4073563"
       x="127.59644"
       y="70.983505"
       ry="0" />
    <text
       xml:space="preserve"
       style="font-style:normal;font-variant:normal;font-weight:normal;font-stretch:normal;font-size:2.92925px;line-height:1.25;font-family:FreeSans;-inkscape-font-specification:FreeSans;letter-spacing:0px;word-spacing:0px;fill:#000000;fill-opacity:1;stroke:none;stroke-width:0.0732313"
       x="133.25378"
       y="76.221222"
       id="text638"><tspan
         sodipodi:role="line"
         id="tspan636"
         style="font-style:normal;font-variant:normal;font-weight:bold;font-stretch:normal;font-family:FreeSans;-inkscape-font-specification:FreeSans;stroke-width:0.0732313"
         x="133.25378"
         y="76.221222">MosaicConsole</tspan></text>
    <circle
       style="fill:#ffeeaa;stroke:#000000;stroke-width:0.141719;stroke-miterlimit:4;stroke-dasharray:none"
       id="circle642"
       cx="127.56174"
       cy="71.088272"
       r="1.0464772" />
    <path
       style="fill:none;stroke:#000000;stroke-width:0.267209px;stroke-linecap:butt;stroke-linejoin:miter;stroke-opacity:1;marker-start:url(#DiamondMstart)"
       d="M 98.008737,55.951887 143.78712,70.894321"
       id="path11960" />
    <text
       xml:space="preserve"
       style="font-style:normal;font-variant:normal;font-weight:normal;font-stretch:normal;font-size:2.40525px;line-height:1.25;font-family:Roboto;-inkscape-font-specification:Roboto;letter-spacing:0px;word-spacing:0px;fill:#000000;fill-opacity:1;stroke:none;stroke-width:0.0601311"
       x="88.166924"
       y="36.82003"
       id="text15695"><tspan
         sodipodi:role="line"
         id="tspan15693"
         style="font-style:normal;font-variant:normal;font-weight:normal;font-stretch:normal;font-family:FreeSans;-inkscape-font-specification:FreeSans;stroke-width:0.0601311"
         x="88.166924"
         y="36.82003">1...maximumCores</tspan></text>
    <path
       style="fill:none;stroke:#000000;stroke-width:0.264583px;stroke-linecap:butt;stroke-linejoin:miter;stroke-opacity:1;marker-end:url(#marker8031)"
       d="m 143.24523,79.556261 v 11.16785"
       id="path18603" />
    <text
       xml:space="preserve"
       style="font-style:normal;font-variant:normal;font-weight:normal;font-stretch:normal;font-size:2.40525px;line-height:1.25;font-family:Roboto;-inkscape-font-specification:Roboto;letter-spacing:0px;word-spacing:0px;fill:#000000;fill-opacity:1;stroke:none;stroke-width:0.0601311"
       x="144.3773"
       y="89.311119"
       id="text19095"><tspan
         sodipodi:role="line"
         id="tspan19093"
         style="font-style:normal;font-variant:normal;font-weight:normal;font-stretch:normal;font-family:FreeSans;-inkscape-font-specification:FreeSans;stroke-width:0.0601311"
         x="144.3773"
         y="89.311119">0+</tspan></text>
    <path
       style="fill:#f4d7d7;stroke:#de8787;stroke-width:0.201046px;stroke-linecap:butt;stroke-linejoin:miter;stroke-opacity:1;marker-start:url(#Tail);marker-end:url(#Tail)"
       d="m 139.92809,81.73201 0.005,3.010061 0.007,4.635721"
       id="path28387"
       sodipodi:nodetypes="ccc" />
    <path
       style="fill:#f4d7d7;stroke:#de8787;stroke-width:0.210913px;stroke-linecap:butt;stroke-linejoin:miter;stroke-opacity:1;marker-start:url(#Tail);marker-end:url(#Tail)"
       d="m 121.16233,61.340087 3.03276,0.879775 4.67058,1.355245"
       id="path28389"
       sodipodi:nodetypes="ccc" />
    <g
       id="g3867"
       transform="translate(-13.31885,-12.934849)">
      <g
         id="g3842"
         transform="translate(-0.72164647,-9.5859086)">
        <g
           id="g59643"
           transform="matrix(0.85890597,0,0,0.85890597,8.4277449,-0.49948539)">
          <g
             id="g57711"
             transform="matrix(1.5927068,0,0,0.99498313,-144.2256,-5.6263094)">
            <g
               id="g57705"
               transform="translate(-5.6560378,12.698862)"
               style="fill:#d5f6ff">
              <rect
                 style="fill:#d5f6ff;stroke:#000000;stroke-width:0.190506;stroke-miterlimit:4;stroke-dasharray:none"
                 id="rect57699"
                 width="25.130527"
                 height="9.8295307"
                 x="117.27106"
                 y="48.463207"
                 ry="0" />
              <text
                 xml:space="preserve"
                 style="font-style:normal;font-variant:normal;font-weight:normal;font-stretch:normal;font-size:3.41044px;line-height:1.25;font-family:FreeSans;-inkscape-font-specification:FreeSans;letter-spacing:0px;word-spacing:0px;fill:#d5f6ff;fill-opacity:1;stroke:none;stroke-width:0.0852611"
                 x="124.38986"
                 y="54.58186"
                 id="text57703"><tspan
                   sodipodi:role="line"
                   id="tspan57701"
                   style="font-style:normal;font-variant:normal;font-weight:normal;font-stretch:normal;font-family:FreeSans;-inkscape-font-specification:FreeSans;fill:#d5f6ff;stroke-width:0.0852611"
                   x="124.38986"
                   y="54.58186">Mosaic</tspan></text>
            </g>
          </g>
          <text
             xml:space="preserve"
             style="font-style:normal;font-variant:normal;font-weight:normal;font-stretch:normal;font-size:3.41044px;line-height:1.25;font-family:FreeSans;-inkscape-font-specification:FreeSans;letter-spacing:0px;word-spacing:0px;fill:#000000;fill-opacity:1;stroke:none;stroke-width:0.0852611"
             x="38.443851"
             y="61.010857"
             id="text57820"><tspan
               sodipodi:role="line"
               id="tspan57818"
               style="font-style:normal;font-variant:normal;font-weight:normal;font-stretch:normal;font-family:FreeSans;-inkscape-font-specification:FreeSans;stroke-width:0.0852611"
               x="38.443851"
               y="61.010857">PipeableOSProcess</tspan></text>
        </g>
        <path
           style="fill:none;stroke:#000000;stroke-width:0.219464px;stroke-linecap:butt;stroke-linejoin:miter;stroke-opacity:1;marker-end:url(#marker59842)"
           d="M 88.050101,50.997677 H 72.3949"
           id="path59838" />
        <text
           xml:space="preserve"
           style="font-style:normal;font-variant:normal;font-weight:normal;font-stretch:normal;font-size:2.40525px;line-height:1.25;font-family:Roboto;-inkscape-font-specification:Roboto;letter-spacing:0px;word-spacing:0px;fill:#000000;fill-opacity:1;stroke:none;stroke-width:0.0601311"
           x="73.379326"
           y="49.21104"
           id="text59932"><tspan
             sodipodi:role="line"
             id="tspan59930"
             style="font-style:normal;font-variant:normal;font-weight:normal;font-stretch:normal;font-family:FreeSans;-inkscape-font-specification:FreeSans;stroke-width:0.0601311"
             x="73.379326"
             y="49.21104">1</tspan></text>
        <text
           xml:space="preserve"
           style="font-style:normal;font-variant:normal;font-weight:normal;font-stretch:normal;font-size:1.51788px;line-height:1.25;font-family:Roboto;-inkscape-font-specification:Roboto;letter-spacing:0px;word-spacing:0px;fill:#164450;fill-opacity:1;stroke:#5fbcd3;stroke-width:0.0379471"
           x="46.894054"
           y="44.674095"
           id="text143402"
           transform="rotate(-0.11614945)"><tspan
             sodipodi:role="line"
             id="tspan143400"
             style="fill:#164450;stroke:#5fbcd3;stroke-width:0.0379471"
             x="46.894054"
             y="44.674095">Scheme DSP process</tspan></text>
      </g>
      <rect
         style="fill:#f4d7d7;stroke:#000000;stroke-width:0.163627;stroke-miterlimit:4;stroke-dasharray:none"
         id="rect30131"
         width="21.584761"
         height="8.4426422"
         x="89.332809"
         y="35.13715"
         ry="0" />
      <rect
         style="fill:#f4d7d7;stroke:#000000;stroke-width:0.163627;stroke-miterlimit:4;stroke-dasharray:none"
         id="rect30129"
         width="21.584761"
         height="8.4426422"
         x="88.263695"
         y="36.357483"
         ry="0" />
      <rect
         style="fill:#f4d7d7;stroke:#000000;stroke-width:0.163627;stroke-miterlimit:4;stroke-dasharray:none"
         id="rect36751"
         width="21.584761"
         height="8.4426422"
         x="87.307388"
         y="37.521008"
         ry="0" />
      <text
         xml:space="preserve"
         style="font-style:normal;font-variant:normal;font-weight:normal;font-stretch:normal;font-size:2.92925px;line-height:1.25;font-family:FreeSans;-inkscape-font-specification:FreeSans;letter-spacing:0px;word-spacing:0px;fill:#000000;fill-opacity:1;stroke:none;stroke-width:0.0732313"
         x="92.982384"
         y="42.776356"
         id="text1507"><tspan
           sodipodi:role="line"
           id="tspan1505"
           style="font-style:normal;font-variant:normal;font-weight:bold;font-stretch:normal;font-family:FreeSans;-inkscape-font-specification:FreeSans;stroke-width:0.0732313"
           x="92.982384"
           y="42.776356">Mosaic</tspan></text>
      <text
         xml:space="preserve"
         style="font-style:normal;font-variant:normal;font-weight:normal;font-stretch:normal;font-size:1.51788px;line-height:1.25;font-family:Roboto;-inkscape-font-specification:Roboto;letter-spacing:0px;word-spacing:0px;fill:#216778;fill-opacity:1;stroke:#5fbcd3;stroke-width:0.0379471"
         x="93.389137"
         y="33.64772"
         id="text32553"
         transform="rotate(-0.11614945)"><tspan
           sodipodi:role="line"
           id="tspan32551"
           style="fill:#216778;stroke:#5fbcd3;stroke-width:0.0379471"
           x="93.389137"
           y="33.64772">multiple processors</tspan></text>
    </g>
    <rect
       style="fill:#e2dbe3;stroke:#000000;stroke-width:0.198913;stroke-miterlimit:4;stroke-dasharray:none"
       id="rect17090"
       width="32.031967"
       height="8.4073563"
       x="127.59644"
       y="90.965446"
       ry="0" />
    <text
       xml:space="preserve"
       style="font-style:normal;font-variant:normal;font-weight:normal;font-stretch:normal;font-size:2.92925px;line-height:1.25;font-family:FreeSans;-inkscape-font-specification:FreeSans;letter-spacing:0px;word-spacing:0px;fill:#000000;fill-opacity:1;stroke:none;stroke-width:0.0732313"
       x="135.86311"
       y="96.203133"
       id="text17094"><tspan
         sodipodi:role="line"
         id="tspan17092"
         style="font-style:normal;font-variant:normal;font-weight:bold;font-stretch:normal;font-family:FreeSans;-inkscape-font-specification:FreeSans;stroke-width:0.0732313"
         x="135.86311"
         y="96.203133">MosaicTask</tspan></text>
    <circle
       style="fill:#ffeeaa;stroke:#000000;stroke-width:0.141719;stroke-miterlimit:4;stroke-dasharray:none"
       id="circle17096"
       cx="127.56174"
       cy="91.070206"
       r="1.0464772" />
    <rect
       style="fill:#f9f9f9;stroke:#4d4d4d;stroke-width:0.268822;stroke-miterlimit:4;stroke-dasharray:none;stroke-dashoffset:0"
       id="rect4776"
       width="74.372475"
       height="52.920612"
       x="92.930374"
       y="121.61626"
       ry="14.109177" />
    <g
       id="g11793"
       transform="matrix(1.3632772,0,0,1.3632772,-25.704376,-49.66847)">
      <ellipse
         cy="149.56055"
         cx="123.45402"
         id="ellipse4778"
         style="fill:#000000;fill-opacity:1;stroke-width:0.116473;stroke-miterlimit:4;stroke-dasharray:none"
         rx="0.28830028"
         ry="0.29933515" />
      <ellipse
         style="fill:#000000;fill-opacity:1;stroke-width:0.116473;stroke-miterlimit:4;stroke-dasharray:none"
         id="ellipse4780"
         cx="124.9676"
         cy="149.56055"
         rx="0.28830028"
         ry="0.29933515" />
      <ellipse
         cy="149.56055"
         cx="124.21082"
         id="ellipse4782"
         style="fill:#000000;fill-opacity:1;stroke-width:0.116473;stroke-miterlimit:4;stroke-dasharray:none"
         rx="0.28830028"
         ry="0.29933515" />
    </g>
    <g
       id="g4792"
       transform="matrix(0.90810515,0,0,0.62684898,16.345103,88.208113)"
       style="fill:#e3dbde">
      <g
         id="g4790"
         transform="translate(-5.6560378,12.698862)"
         style="fill:#e3dbde">
        <rect
           style="fill:#e3dbde;stroke:#000000;stroke-width:0.190506;stroke-miterlimit:4;stroke-dasharray:none"
           id="rect4784"
           width="25.130527"
           height="9.8295307"
           x="117.27106"
           y="48.463207"
           ry="0" />
        <text
           xml:space="preserve"
           style="font-style:normal;font-variant:normal;font-weight:normal;font-stretch:normal;font-size:3.41044px;line-height:1.25;font-family:FreeSans;-inkscape-font-specification:FreeSans;letter-spacing:0px;word-spacing:0px;fill:#e3dbde;fill-opacity:1;stroke:none;stroke-width:0.0852611"
           x="124.38986"
           y="54.58186"
           id="text4788"><tspan
             sodipodi:role="line"
             id="tspan4786"
             style="font-style:normal;font-variant:normal;font-weight:normal;font-stretch:normal;font-family:FreeSans;-inkscape-font-specification:FreeSans;fill:#e3dbde;stroke-width:0.0852611"
             x="124.38986"
             y="54.58186">Mosaic</tspan></text>
      </g>
    </g>
    <text
       xml:space="preserve"
       style="font-style:normal;font-variant:normal;font-weight:normal;font-stretch:normal;font-size:2.14608px;line-height:1.25;font-family:FreeSans;-inkscape-font-specification:FreeSans;letter-spacing:0px;word-spacing:0px;fill:#000000;fill-opacity:1;stroke:none;stroke-width:0.053652"
       x="121.77534"
       y="130.39877"
       id="text4796"><tspan
         sodipodi:role="line"
         id="tspan4794"
         style="font-style:normal;font-variant:normal;font-weight:normal;font-stretch:normal;font-family:FreeSans;-inkscape-font-specification:FreeSans;stroke-width:0.053652"
         x="121.77534"
         y="130.39877">MosaicChopTask</tspan></text>
    <g
       id="g4806"
       transform="matrix(0.90810515,0,0,0.62684898,20.095506,104.61486)"
       style="fill:#e3dbde">
      <rect
         style="fill:#e3dbde;stroke:#000000;stroke-width:0.190506;stroke-miterlimit:4;stroke-dasharray:none"
         id="rect4800"
         width="25.130527"
         height="9.8295307"
         x="117.27106"
         y="48.463207"
         ry="0" />
      <text
         xml:space="preserve"
         style="font-style:normal;font-variant:normal;font-weight:normal;font-stretch:normal;font-size:3.41044px;line-height:1.25;font-family:FreeSans;-inkscape-font-specification:FreeSans;letter-spacing:0px;word-spacing:0px;fill:#e3dbde;fill-opacity:1;stroke:none;stroke-width:0.0852611"
         x="124.38986"
         y="54.58186"
         id="text4804"><tspan
           sodipodi:role="line"
           id="tspan4802"
           style="font-style:normal;font-variant:normal;font-weight:normal;font-stretch:normal;font-family:FreeSans;-inkscape-font-specification:FreeSans;fill:#e3dbde;stroke-width:0.0852611"
           x="124.38986"
           y="54.58186">Mosaic</tspan></text>
    </g>
    <text
       xml:space="preserve"
       style="font-style:normal;font-variant:normal;font-weight:normal;font-stretch:normal;font-size:2.14608px;line-height:1.25;font-family:FreeSans;-inkscape-font-specification:FreeSans;letter-spacing:0px;word-spacing:0px;fill:#000000;fill-opacity:1;stroke:none;stroke-width:0.053652"
       x="129.25119"
       y="138.79884"
       id="text4812"><tspan
         sodipodi:role="line"
         id="tspan4810"
         style="font-style:normal;font-variant:normal;font-weight:normal;font-stretch:normal;font-family:FreeSans;-inkscape-font-specification:FreeSans;stroke-width:0.053652"
         x="129.25119"
         y="138.79884">MosaicSearchTask</tspan></text>
    <g
       id="g4824"
       transform="matrix(1.068975,0,0,0.6256173,16.178272,105.18246)"
       style="fill:#e3dbde">
      <g
         id="g4822"
         transform="translate(-5.6560378,12.698862)"
         style="fill:#e3dbde">
        <rect
           style="fill:#e3dbde;stroke:#000000;stroke-width:0.190506;stroke-miterlimit:4;stroke-dasharray:none"
           id="rect4816"
           width="25.130527"
           height="9.8295307"
           x="117.27106"
           y="48.463207"
           ry="0" />
        <text
           xml:space="preserve"
           style="font-style:normal;font-variant:normal;font-weight:normal;font-stretch:normal;font-size:3.41044px;line-height:1.25;font-family:FreeSans;-inkscape-font-specification:FreeSans;letter-spacing:0px;word-spacing:0px;fill:#e3dbde;fill-opacity:1;stroke:none;stroke-width:0.0852611"
           x="124.38986"
           y="54.58186"
           id="text4820"><tspan
             sodipodi:role="line"
             id="tspan4818"
             style="font-style:normal;font-variant:normal;font-weight:normal;font-stretch:normal;font-family:FreeSans;-inkscape-font-specification:FreeSans;fill:#e3dbde;stroke-width:0.0852611"
             x="124.38986"
             y="54.58186">Mosaic</tspan></text>
      </g>
    </g>
    <text
       xml:space="preserve"
       style="font-style:normal;font-variant:normal;font-weight:normal;font-stretch:normal;font-size:2.14608px;line-height:1.25;font-family:FreeSans;-inkscape-font-specification:FreeSans;letter-spacing:0px;word-spacing:0px;fill:#000000;fill-opacity:1;stroke:none;stroke-width:0.053652"
       x="139.5554"
       y="147.29172"
       id="text4828"><tspan
         sodipodi:role="line"
         id="tspan4826"
         style="font-style:normal;font-variant:normal;font-weight:normal;font-stretch:normal;font-family:FreeSans;-inkscape-font-specification:FreeSans;stroke-width:0.053652"
         x="139.5554"
         y="147.29172">MosaicStretchTask</tspan></text>
    <path
       style="fill:#ffffff;stroke:#000000;stroke-width:0.362574;stroke-linecap:butt;stroke-linejoin:miter;stroke-miterlimit:3.9;stroke-dasharray:none;stroke-opacity:1;marker-end:url(#EmptyDiamondL)"
       d="M 145.04497,99.444416 V 119.01595"
       id="path11822" />
    <path
       style="fill:none;stroke:#000000;stroke-width:0.264583px;stroke-linecap:butt;stroke-linejoin:miter;stroke-opacity:1;marker-end:url(#marker8031)"
       d="M 85.238684,52.208832 V 33.214654"
       id="path5876" />
    <path
       style="fill:#f4d7d7;stroke:#de8787;stroke-width:0.210913px;stroke-linecap:butt;stroke-linejoin:miter;stroke-opacity:1;marker-start:url(#Tail);marker-end:url(#Tail)"
       d="m 81.687845,38.123242 -0.02096,3.157721 -0.03262,4.86312"
       id="path9552"
       sodipodi:nodetypes="ccc" />
    <g
       id="g3069"
       transform="translate(2.1652288,-6.8542389)">
      <g
         id="g2148"
         transform="matrix(0.90810515,0,0,0.62684898,0.81988332,122.91463)"
         style="fill:#e3dbde">
        <g
           id="g2146"
           transform="translate(-5.6560378,12.698862)"
           style="fill:#e3dbde">
          <rect
             style="fill:#e3dbde;stroke:#000000;stroke-width:0.190506;stroke-miterlimit:4;stroke-dasharray:none"
             id="rect2140"
             width="25.130527"
             height="9.8295307"
             x="117.27106"
             y="48.463207"
             ry="0" />
          <text
             xml:space="preserve"
             style="font-style:normal;font-variant:normal;font-weight:normal;font-stretch:normal;font-size:3.41044px;line-height:1.25;font-family:FreeSans;-inkscape-font-specification:FreeSans;letter-spacing:0px;word-spacing:0px;fill:#e3dbde;fill-opacity:1;stroke:none;stroke-width:0.0852611"
             x="124.38986"
             y="54.58186"
             id="text2144"><tspan
               sodipodi:role="line"
               id="tspan2142"
               style="font-style:normal;font-variant:normal;font-weight:normal;font-stretch:normal;font-family:FreeSans;-inkscape-font-specification:FreeSans;fill:#e3dbde;stroke-width:0.0852611"
               x="124.38986"
               y="54.58186">Mosaic</tspan></text>
        </g>
      </g>
      <text
         xml:space="preserve"
         style="font-style:normal;font-variant:normal;font-weight:normal;font-stretch:normal;font-size:2.14608px;line-height:1.25;font-family:FreeSans;-inkscape-font-specification:FreeSans;letter-spacing:0px;word-spacing:0px;fill:#000000;fill-opacity:1;stroke:none;stroke-width:0.053652"
         x="104.84123"
         y="164.88315"
         id="text2152"><tspan
           sodipodi:role="line"
           id="tspan2150"
           style="font-style:normal;font-variant:normal;font-weight:normal;font-stretch:normal;font-family:FreeSans;-inkscape-font-specification:FreeSans;stroke-width:0.053652"
           x="104.84123"
           y="164.88315">MosaicPlayerTask</tspan></text>
    </g>
    <g
       id="g3085"
       transform="translate(-48.405035,-6.8542389)">
      <g
         id="g3079"
         transform="matrix(0.90810515,0,0,0.62684898,0.81988332,122.91463)"
         style="fill:#e5ffd5">
        <g
           id="g3077"
           transform="translate(-5.6560378,12.698862)"
           style="fill:#e5ffd5">
          <rect
             style="fill:#e5ffd5;stroke:#000000;stroke-width:0.190506;stroke-miterlimit:4;stroke-dasharray:none"
             id="rect3071"
             width="25.130527"
             height="9.8295307"
             x="117.27106"
             y="48.463207"
             ry="0" />
          <text
             xml:space="preserve"
             style="font-style:normal;font-variant:normal;font-weight:normal;font-stretch:normal;font-size:3.41044px;line-height:1.25;font-family:FreeSans;-inkscape-font-specification:FreeSans;letter-spacing:0px;word-spacing:0px;fill:#e5ffd5;fill-opacity:1;stroke:none;stroke-width:0.0852611"
             x="124.38986"
             y="54.58186"
             id="text3075"><tspan
               sodipodi:role="line"
               id="tspan3073"
               style="font-style:normal;font-variant:normal;font-weight:normal;font-stretch:normal;font-family:FreeSans;-inkscape-font-specification:FreeSans;fill:#e5ffd5;stroke-width:0.0852611"
               x="124.38986"
               y="54.58186">Mosaic</tspan></text>
        </g>
      </g>
      <text
         xml:space="preserve"
         style="font-style:normal;font-variant:normal;font-weight:normal;font-stretch:normal;font-size:2.14608px;line-height:1.25;font-family:FreeSans;-inkscape-font-specification:FreeSans;letter-spacing:0px;word-spacing:0px;fill:#000000;fill-opacity:1;stroke:none;stroke-width:0.053652"
         x="106.89024"
         y="164.88315"
         id="text3083"><tspan
           sodipodi:role="line"
           id="tspan3081"
           style="font-style:normal;font-variant:normal;font-weight:normal;font-stretch:normal;font-family:FreeSans;-inkscape-font-specification:FreeSans;stroke-width:0.053652"
           x="106.89024"
           y="164.88315">MosaicPlayer</tspan></text>
    </g>
    <path
       style="fill:#de8787;stroke:#de8787;stroke-width:0.286383;stroke-linecap:butt;stroke-linejoin:miter;stroke-miterlimit:4.1;stroke-dasharray:none;stroke-opacity:1;marker-start:url(#marker10883);marker-end:url(#marker10747)"
       d="M 99.87118,157.30521 H 81.047485"
       id="path3996" />
    <text
       xml:space="preserve"
       style="font-style:normal;font-variant:normal;font-weight:normal;font-stretch:normal;font-size:2.40525px;line-height:1.25;font-family:Roboto;-inkscape-font-specification:Roboto;letter-spacing:0px;word-spacing:0px;fill:#000000;fill-opacity:1;stroke:none;stroke-width:0.0601311"
       x="144.3773"
       y="89.311119"
       id="text9330"><tspan
         sodipodi:role="line"
         id="tspan9328"
         style="font-style:normal;font-variant:normal;font-weight:normal;font-stretch:normal;font-family:FreeSans;-inkscape-font-specification:FreeSans;stroke-width:0.0601311"
         x="144.3773"
         y="89.311119">0+</tspan></text>
    <text
       xml:space="preserve"
       style="font-style:normal;font-variant:normal;font-weight:normal;font-stretch:normal;font-size:2.40525px;line-height:1.25;font-family:Roboto;-inkscape-font-specification:Roboto;letter-spacing:0px;word-spacing:0px;fill:#000000;fill-opacity:1;stroke:none;stroke-width:0.0601311"
       x="100.80159"
       y="154.96495"
       id="text9334"><tspan
         sodipodi:role="line"
         id="tspan9332"
         style="font-style:normal;font-variant:normal;font-weight:normal;font-stretch:normal;font-family:FreeSans;-inkscape-font-specification:FreeSans;stroke-width:0.0601311"
         x="100.80159"
         y="154.96495">1+</tspan></text>
    <g
       id="g14879"
       transform="translate(-66.015558,9.6860605)">
      <g
         id="g10997"
         transform="matrix(0.90810515,0,0,0.62684898,2.6093782,126.57991)"
         style="fill:#e5ffd5">
        <g
           id="g10995"
           transform="translate(-5.6560378,12.698862)"
           style="fill:#e5ffd5">
          <rect
             style="fill:#e5ffd5;stroke:#000000;stroke-width:0.190506;stroke-miterlimit:4;stroke-dasharray:none"
             id="rect10989"
             width="25.130527"
             height="9.8295307"
             x="117.27106"
             y="48.463207"
             ry="0" />
          <text
             xml:space="preserve"
             style="font-style:normal;font-variant:normal;font-weight:normal;font-stretch:normal;font-size:3.41044px;line-height:1.25;font-family:FreeSans;-inkscape-font-specification:FreeSans;letter-spacing:0px;word-spacing:0px;fill:#e5ffd5;fill-opacity:1;stroke:none;stroke-width:0.0852611"
             x="124.38986"
             y="54.58186"
             id="text10993"><tspan
               sodipodi:role="line"
               id="tspan10991"
               style="font-style:normal;font-variant:normal;font-weight:normal;font-stretch:normal;font-family:FreeSans;-inkscape-font-specification:FreeSans;fill:#e5ffd5;stroke-width:0.0852611"
               x="124.38986"
               y="54.58186">Mosaic</tspan></text>
        </g>
      </g>
      <text
         xml:space="preserve"
         style="font-style:normal;font-variant:normal;font-weight:normal;font-stretch:normal;font-size:2.14608px;line-height:1.25;font-family:FreeSans;-inkscape-font-specification:FreeSans;letter-spacing:0px;word-spacing:0px;fill:#000000;fill-opacity:1;stroke:none;stroke-width:0.053652"
         x="109.58588"
         y="168.77055"
         id="text11001"><tspan
           sodipodi:role="line"
           id="tspan10999"
           style="font-style:normal;font-variant:normal;font-weight:normal;font-stretch:normal;font-family:FreeSans;-inkscape-font-specification:FreeSans;stroke-width:0.053652"
           x="109.58588"
           y="168.77055">MosaicCello</tspan></text>
    </g>
    <g
       id="g14870"
       transform="translate(-44.318417,4.3817655)">
      <g
         id="g11013"
         transform="matrix(0.90810515,0,0,0.62684898,8.1347053,138.09456)"
         style="fill:#e5ffd5">
        <g
           id="g11011"
           transform="translate(-5.6560378,12.698862)"
           style="fill:#e5ffd5">
          <rect
             style="fill:#e5ffd5;stroke:#000000;stroke-width:0.190506;stroke-miterlimit:4;stroke-dasharray:none"
             id="rect11005"
             width="25.130527"
             height="9.8295307"
             x="117.27106"
             y="48.463207"
             ry="0" />
          <text
             xml:space="preserve"
             style="font-style:normal;font-variant:normal;font-weight:normal;font-stretch:normal;font-size:3.41044px;line-height:1.25;font-family:FreeSans;-inkscape-font-specification:FreeSans;letter-spacing:0px;word-spacing:0px;fill:#e5ffd5;fill-opacity:1;stroke:none;stroke-width:0.0852611"
             x="124.38986"
             y="54.58186"
             id="text11009"><tspan
               sodipodi:role="line"
               id="tspan11007"
               style="font-style:normal;font-variant:normal;font-weight:normal;font-stretch:normal;font-family:FreeSans;-inkscape-font-specification:FreeSans;fill:#e5ffd5;stroke-width:0.0852611"
               x="124.38986"
               y="54.58186">Mosaic</tspan></text>
        </g>
      </g>
      <text
         xml:space="preserve"
         style="font-style:normal;font-variant:normal;font-weight:normal;font-stretch:normal;font-size:2.14608px;line-height:1.25;font-family:FreeSans;-inkscape-font-specification:FreeSans;letter-spacing:0px;word-spacing:0px;fill:#000000;fill-opacity:1;stroke:none;stroke-width:0.053652"
         x="113.84931"
         y="180.2852"
         id="text11017"><tspan
           sodipodi:role="line"
           id="tspan11015"
           style="font-style:normal;font-variant:normal;font-weight:normal;font-stretch:normal;font-family:FreeSans;-inkscape-font-specification:FreeSans;stroke-width:0.053652"
           x="113.84931"
           y="180.2852">MosaicClarinet</tspan></text>
    </g>
    <path
       style="fill:none;stroke:#000000;stroke-width:0.264583px;stroke-linecap:butt;stroke-linejoin:miter;stroke-opacity:1;marker-end:url(#marker8025)"
       d="m 64.279822,160.54298 -7.021636,13.89419"
       id="path14963"
       sodipodi:nodetypes="cc" />
    <path
       style="fill:none;stroke:#000000;stroke-width:0.264583px;stroke-linecap:butt;stroke-linejoin:miter;stroke-opacity:1;marker-end:url(#marker8025)"
       d="m 64.279822,160.54298 12.022645,20.82383"
       id="path15087" />
    <path
       style="fill:#de8787;stroke:#de8787;stroke-width:0.246004;stroke-linecap:butt;stroke-linejoin:miter;stroke-miterlimit:4.1;stroke-dasharray:none;stroke-opacity:1;marker-start:url(#marker10883);marker-end:url(#marker10747)"
       d="m 139.62557,102.2436 v 13.88971"
       id="path15639" />
    <g
       id="g15647"
       transform="matrix(1.3632772,0,0,1.3632772,-25.704376,-49.66847)">
      <ellipse
         cy="149.56055"
         cx="123.45402"
         id="ellipse15641"
         style="fill:#000000;fill-opacity:1;stroke-width:0.116473;stroke-miterlimit:4;stroke-dasharray:none"
         rx="0.28830028"
         ry="0.29933515" />
      <ellipse
         style="fill:#000000;fill-opacity:1;stroke-width:0.116473;stroke-miterlimit:4;stroke-dasharray:none"
         id="ellipse15643"
         cx="124.9676"
         cy="149.56055"
         rx="0.28830028"
         ry="0.29933515" />
      <ellipse
         cy="149.56055"
         cx="124.21082"
         id="ellipse15645"
         style="fill:#000000;fill-opacity:1;stroke-width:0.116473;stroke-miterlimit:4;stroke-dasharray:none"
         rx="0.28830028"
         ry="0.29933515" />
    </g>
    <g
       id="g15655"
       transform="matrix(1.3632772,0,0,1.3632772,-98.816114,-40.329456)">
      <ellipse
         cy="149.56055"
         cx="123.45402"
         id="ellipse15649"
         style="fill:#000000;fill-opacity:1;stroke-width:0.116473;stroke-miterlimit:4;stroke-dasharray:none"
         rx="0.28830028"
         ry="0.29933515" />
      <ellipse
         style="fill:#000000;fill-opacity:1;stroke-width:0.116473;stroke-miterlimit:4;stroke-dasharray:none"
         id="ellipse15651"
         cx="124.9676"
         cy="149.56055"
         rx="0.28830028"
         ry="0.29933515" />
      <ellipse
         cy="149.56055"
         cx="124.21082"
         id="ellipse15653"
         style="fill:#000000;fill-opacity:1;stroke-width:0.116473;stroke-miterlimit:4;stroke-dasharray:none"
         rx="0.28830028"
         ry="0.29933515" />
    </g>
  </g>
</svg>
